{
  "from": 1,
  "to": 5,
  "currentPage": 1,
  "total": 9,
  "totalPages": 2,
  "queryTime": "0.014",
  "totalTime": "0.042",
  "partial": false,
  "canonicalUrl": "/v1/stores((area(\"55423\",15)))+products(sku in(6200125))?show=products.sku,products.name,products.shortDescription,products.salePrice,products.regularPrice,products.addToCartURL,products.url,products.image,products.customerReviewCount,products.customerReviewAverage,address,address2,city,country,detailedHours,lat,location,lng,name,longName,phone,fullPostalCode,region,storeId&pageSize=5&format=json&apiKey=ew0faCm5P5CuVBVGbtsI6byM",
  "stores": [
    {
      "products": [
        {
          "sku": 6200125,
          "name": "Samsung - 55\" Class - LED - NU7100 Series - 2160p - Smart - 4K UHD TV with HDR",
          "shortDescription": "2160p (4K) resolution with HDRSmart TVMotion Rate 120",
          "salePrice": 599.99,
          "regularPrice": 649.99,
          "addToCartUrl": "https://api.bestbuy.com/click/-/6200125/cart",
          "url": "https://api.bestbuy.com/click/-/6200125/pdp",
          "image": "https://img.bbystatic.com/BestBuy_US/images/products/6200/6200125_sa.jpg",
          "customerReviewCount": 457,
          "customerReviewAverage": 4.7
        }
      ],
      "address": "1000 West 78th St",
      "address2": "",
      "city": "Richfield",
      "country": "US",
      "detailedHours": [
        { "day": "Sunday", "date": "2018-08-26", "open": "10:00", "close": "20:00" },
        { "day": "Monday", "date": "2018-08-27", "open": "10:00", "close": "21:00" },
        { "day": "Tuesday", "date": "2018-08-28", "open": "10:00", "close": "21:00" },
        { "day": "Wednesday", "date": "2018-08-29", "open": "10:00", "close": "21:00" },
        { "day": "Thursday", "date": "2018-08-30", "open": "10:00", "close": "21:00" },
        { "day": "Friday", "date": "2018-08-31", "open": "10:00", "close": "21:00" },
        { "day": "Saturday", "date": "2018-09-01", "open": "10:00", "close": "21:00" },
        { "day": "Sunday", "date": "2018-09-02", "open": "10:00", "close": "20:00" },
        { "day": "Monday", "date": "2018-09-03", "open": "10:00", "close": "21:00" },
        { "day": "Tuesday", "date": "2018-09-04", "open": "10:00", "close": "21:00" },
        { "day": "Wednesday", "date": "2018-09-05", "open": "10:00", "close": "21:00" },
        { "day": "Thursday", "date": "2018-09-06", "open": "10:00", "close": "21:00" },
        { "day": "Friday", "date": "2018-09-07", "open": "10:00", "close": "21:00" },
        { "day": "Saturday", "date": "2018-09-08", "open": "10:00", "close": "21:00" }
      ],
      "lat": 44.86321,
      "lng": -93.29274,
      "name": "RICHFIELD MN",
      "longName": "Richfield",
      "phone": "612-861-3917",
      "fullPostalCode": "55423-3912",
      "region": "MN",
      "storeId": 281
    },
    {
      "products": [
        {
          "sku": 6200125,
          "name": "Samsung - 55\" Class - LED - NU7100 Series - 2160p - Smart - 4K UHD TV with HDR",
          "shortDescription": "2160p (4K) resolution with HDRSmart TVMotion Rate 120",
          "salePrice": 599.99,
          "regularPrice": 649.99,
          "addToCartUrl": "https://api.bestbuy.com/click/-/6200125/cart",
          "url": "https://api.bestbuy.com/click/-/6200125/pdp",
          "image": "https://img.bbystatic.com/BestBuy_US/images/products/6200/6200125_sa.jpg",
          "customerReviewCount": 457,
          "customerReviewAverage": 4.7
        }
      ],
      "address": "1235 Town Centre Dr",
      "address2": "",
      "city": "Eagan",
      "country": "US",
      "detailedHours": [
        { "day": "Sunday", "date": "2018-08-26", "open": "10:00", "close": "20:00" },
        { "day": "Monday", "date": "2018-08-27", "open": "10:00", "close": "21:00" },
        { "day": "Tuesday", "date": "2018-08-28", "open": "10:00", "close": "21:00" },
        { "day": "Wednesday", "date": "2018-08-29", "open": "10:00", "close": "21:00" },
        { "day": "Thursday", "date": "2018-08-30", "open": "10:00", "close": "21:00" },
        { "day": "Friday", "date": "2018-08-31", "open": "10:00", "close": "21:00" },
        { "day": "Saturday", "date": "2018-09-01", "open": "10:00", "close": "21:00" },
        { "day": "Sunday", "date": "2018-09-02", "open": "10:00", "close": "20:00" },
        { "day": "Monday", "date": "2018-09-03", "open": "10:00", "close": "21:00" },
        { "day": "Tuesday", "date": "2018-09-04", "open": "10:00", "close": "21:00" },
        { "day": "Wednesday", "date": "2018-09-05", "open": "10:00", "close": "21:00" },
        { "day": "Thursday", "date": "2018-09-06", "open": "10:00", "close": "21:00" },
        { "day": "Friday", "date": "2018-09-07", "open": "10:00", "close": "21:00" },
        { "day": "Saturday", "date": "2018-09-08", "open": "10:00", "close": "21:00" }
      ],
      "lat": 44.83303,
      "lng": -93.15589,
      "name": "EAGAN MN",
      "longName": "Eagan",
      "phone": "651-365-0540",
      "fullPostalCode": "55123-1067",
      "region": "MN",
      "storeId": 1055
    },
    {
      "products": [
        {
          "sku": 6200125,
          "name": "Samsung - 55\" Class - LED - NU7100 Series - 2160p - Smart - 4K UHD TV with HDR",
          "shortDescription": "2160p (4K) resolution with HDRSmart TVMotion Rate 120",
          "salePrice": 599.99,
          "regularPrice": 649.99,
          "addToCartUrl": "https://api.bestbuy.com/click/-/6200125/cart",
          "url": "https://api.bestbuy.com/click/-/6200125/pdp",
          "image": "https://img.bbystatic.com/BestBuy_US/images/products/6200/6200125_sa.jpg",
          "customerReviewCount": 457,
          "customerReviewAverage": 4.7
        }
      ],
      "address": "11600 Leona Rd",
      "address2": "",
      "city": "Eden Prairie",
      "country": "US",
      "detailedHours": [
        { "day": "Sunday", "date": "2018-08-26", "open": "10:00", "close": "20:00" },
        { "day": "Monday", "date": "2018-08-27", "open": "10:00", "close": "21:00" },
        { "day": "Tuesday", "date": "2018-08-28", "open": "10:00", "close": "21:00" },
        { "day": "Wednesday", "date": "2018-08-29", "open": "10:00", "close": "21:00" },
        { "day": "Thursday", "date": "2018-08-30", "open": "10:00", "close": "21:00" },
        { "day": "Friday", "date": "2018-08-31", "open": "10:00", "close": "21:00" },
        { "day": "Saturday", "date": "2018-09-01", "open": "10:00", "close": "21:00" },
        { "day": "Sunday", "date": "2018-09-02", "open": "10:00", "close": "20:00" },
        { "day": "Monday", "date": "2018-09-03", "open": "10:00", "close": "21:00" },
        { "day": "Tuesday", "date": "2018-09-04", "open": "10:00", "close": "21:00" },
        { "day": "Wednesday", "date": "2018-09-05", "open": "10:00", "close": "21:00" },
        { "day": "Thursday", "date": "2018-09-06", "open": "10:00", "close": "21:00" },
        { "day": "Friday", "date": "2018-09-07", "open": "10:00", "close": "21:00" },
        { "day": "Saturday", "date": "2018-09-08", "open": "10:00", "close": "21:00" }
      ],
      "lat": 44.86091,
      "lng": -93.42473,
      "name": "EDEN PRAIRIE MN",
      "longName": "Eden Prairie",
      "phone": "952-941-5149",
      "fullPostalCode": "55344-3803",
      "region": "MN",
      "storeId": 611
    },
    {
      "products": [
        {
          "sku": 6200125,
          "name": "Samsung - 55\" Class - LED - NU7100 Series - 2160p - Smart - 4K UHD TV with HDR",
          "shortDescription": "2160p (4K) resolution with HDRSmart TVMotion Rate 120",
          "salePrice": 599.99,
          "regularPrice": 649.99,
          "addToCartUrl": "https://api.bestbuy.com/click/-/6200125/cart",
          "url": "https://api.bestbuy.com/click/-/6200125/pdp",
          "image": "https://img.bbystatic.com/BestBuy_US/images/products/6200/6200125_sa.jpg",
          "customerReviewCount": 457,
          "customerReviewAverage": 4.7
        }
      ],
      "address": "14141 Aldrich Ave S",
      "address2": "",
      "city": "Burnsville",
      "country": "US",
      "detailedHours": [
        { "day": "Sunday", "date": "2018-08-26", "open": "10:00", "close": "20:00" },
        { "day": "Monday", "date": "2018-08-27", "open": "10:00", "close": "21:00" },
        { "day": "Tuesday", "date": "2018-08-28", "open": "10:00", "close": "21:00" },
        { "day": "Wednesday", "date": "2018-08-29", "open": "10:00", "close": "21:00" },
        { "day": "Thursday", "date": "2018-08-30", "open": "10:00", "close": "21:00" },
        { "day": "Friday", "date": "2018-08-31", "open": "10:00", "close": "21:00" },
        { "day": "Saturday", "date": "2018-09-01", "open": "10:00", "close": "21:00" },
        { "day": "Sunday", "date": "2018-09-02", "open": "10:00", "close": "20:00" },
        { "day": "Monday", "date": "2018-09-03", "open": "10:00", "close": "21:00" },
        { "day": "Tuesday", "date": "2018-09-04", "open": "10:00", "close": "21:00" },
        { "day": "Wednesday", "date": "2018-09-05", "open": "10:00", "close": "21:00" },
        { "day": "Thursday", "date": "2018-09-06", "open": "10:00", "close": "21:00" },
        { "day": "Friday", "date": "2018-09-07", "open": "10:00", "close": "21:00" },
        { "day": "Saturday", "date": "2018-09-08", "open": "10:00", "close": "21:00" }
      ],
      "lat": 44.74802,
      "lng": -93.28584,
      "name": "BURNSVILLE MN",
      "longName": "Burnsville",
      "phone": "952-435-9379",
      "fullPostalCode": "55337-4444",
      "region": "MN",
      "storeId": 8
    },
    {
      "products": [
        {
          "sku": 6200125,
          "name": "Samsung - 55\" Class - LED - NU7100 Series - 2160p - Smart - 4K UHD TV with HDR",
          "shortDescription": "2160p (4K) resolution with HDRSmart TVMotion Rate 120",
          "salePrice": 599.99,
          "regularPrice": 649.99,
          "addToCartUrl": "https://api.bestbuy.com/click/-/6200125/cart",
          "url": "https://api.bestbuy.com/click/-/6200125/pdp",
          "image": "https://img.bbystatic.com/BestBuy_US/images/products/6200/6200125_sa.jpg",
          "customerReviewCount": 457,
          "customerReviewAverage": 4.7
        }
      ],
      "address": "8100 Old Carriage Ct",
      "address2": "",
      "city": "Shakopee",
      "country": "US",
      "detailedHours": [
        { "day": "Sunday", "date": "2018-08-26", "open": "10:00", "close": "20:00" },
        { "day": "Monday", "date": "2018-08-27", "open": "10:00", "close": "21:00" },
        { "day": "Tuesday", "date": "2018-08-28", "open": "10:00", "close": "21:00" },
        { "day": "Wednesday", "date": "2018-08-29", "open": "10:00", "close": "21:00" },
        { "day": "Thursday", "date": "2018-08-30", "open": "10:00", "close": "21:00" },
        { "day": "Friday", "date": "2018-08-31", "open": "10:00", "close": "21:00" },
        { "day": "Saturday", "date": "2018-09-01", "open": "10:00", "close": "21:00" },
        { "day": "Sunday", "date": "2018-09-02", "open": "10:00", "close": "20:00" },
        { "day": "Monday", "date": "2018-09-03", "open": "10:00", "close": "21:00" },
        { "day": "Tuesday", "date": "2018-09-04", "open": "10:00", "close": "21:00" },
        { "day": "Wednesday", "date": "2018-09-05", "open": "10:00", "close": "21:00" },
        { "day": "Thursday", "date": "2018-09-06", "open": "10:00", "close": "21:00" },
        { "day": "Friday", "date": "2018-09-07", "open": "10:00", "close": "21:00" },
        { "day": "Saturday", "date": "2018-09-08", "open": "10:00", "close": "21:00" }
      ],
      "lat": 44.77825,
      "lng": -93.41347,
      "name": "SHAKOPEE MN",
      "longName": "Shakopee",
      "phone": "952-233-0387",
      "fullPostalCode": "55379-3160",
      "region": "MN",
      "storeId": 1463
    }
  ],
  "warnings": "Distances are in terms of miles (default)"
}
